%YAML 1.1
%TAG !u! tag:unity3d.com,2011:
--- !u!21 &2100000
Material:
  serializedVersion: 6
  m_ObjectHideFlags: 0
  m_PrefabParentObject: {fileID: 0}
  m_PrefabInternal: {fileID: 0}
  m_Name: ColumnSpec000c
  m_Shader: {fileID: 46, guid: 0000000000000000f000000000000000, type: 0}
  m_ShaderKeywords: _AFFECTAO_ON _DETAIL_MULX2 _NORMALMAP _PARALLAXMAP _RIMENABLE_ON
    _USEGLOSSMAP_ON
  m_LightmapFlags: 5
  m_CustomRenderQueue: -1
  stringTagMap: {}
  m_SavedProperties:
    serializedVersion: 2
    m_TexEnvs:
      data:
        first:
          name: _MainTex
        second:
          m_Texture: {fileID: 2800000, guid: a30426fa79c4ab34db154e118891573c, type: 3}
          m_Scale: {x: 1, y: 1}
          m_Offset: {x: 0, y: 0}
      data:
        first:
          name: _BumpMap
        second:
          m_Texture: {fileID: 2800000, guid: 0f8f64ce7e419924f90829bb14cbf236, type: 3}
          m_Scale: {x: 1, y: 1}
          m_Offset: {x: 0, y: 0}
      data:
        first:
          name: _DetailNormalMap
        second:
          m_Texture: {fileID: 0}
          m_Scale: {x: 1, y: 1}
          m_Offset: {x: 0, y: 0}
      data:
        first:
          name: _NormalMain
        second:
          m_Texture: {fileID: 2800000, guid: 0f8f64ce7e419924f90829bb14cbf236, type: 3}
          m_Scale: {x: 1, y: 1}
          m_Offset: {x: 0, y: 0}
      data:
        first:
          name: _Specular
        second:
          m_Texture: {fileID: 2800000, guid: 142ea41a438434140a11b7cf882e04e4, type: 3}
          m_Scale: {x: 5, y: 5}
          m_Offset: {x: 0, y: 0}
      data:
        first:
          name: _DiffuseDetail
        second:
          m_Texture: {fileID: 2800000, guid: 1984d55e85b922d408323113d110b02e, type: 3}
          m_Scale: {x: 5, y: 5}
          m_Offset: {x: 0, y: 0}
      data:
        first:
          name: _NormalDetail
        second:
          m_Texture: {fileID: 2800000, guid: 3dd984abd5814274d8eeb545486eab39, type: 3}
          m_Scale: {x: 5, y: 5}
          m_Offset: {x: 0, y: 0}
      data:
        first:
          name: _DiffuseMain
        second:
          m_Texture: {fileID: 2800000, guid: a30426fa79c4ab34db154e118891573c, type: 3}
          m_Scale: {x: 1, y: 1}
          m_Offset: {x: 0, y: 0}
      data:
        first:
          name: _ParallaxMap
        second:
          m_Texture: {fileID: 2800000, guid: ed57d93ab4f8010409385d3c53dc9f49, type: 3}
          m_Scale: {x: 1, y: 1}
          m_Offset: {x: 0, y: 0}
      data:
        first:
          name: _Difuse
        second:
          m_Texture: {fileID: 2800000, guid: e337d1ec0cd49e9479b7148ed9d47083, type: 3}
          m_Scale: {x: 5, y: 5}
          m_Offset: {x: 0, y: 0}
      data:
        first:
          name: _Normal
        second:
          m_Texture: {fileID: 2800000, guid: 0f8f64ce7e419924f90829bb14cbf236, type: 3}
          m_Scale: {x: 1, y: 1}
          m_Offset: {x: 0, y: 0}
      data:
        first:
          name: _AOclussion
        second:
          m_Texture: {fileID: 2800000, guid: a30426fa79c4ab34db154e118891573c, type: 3}
          m_Scale: {x: 1, y: 1}
          m_Offset: {x: 0, y: 0}
      data:
        first:
          name: _Texture
        second:
          m_Texture: {fileID: 2800000, guid: a30426fa79c4ab34db154e118891573c, type: 3}
          m_Scale: {x: 1, y: 1}
          m_Offset: {x: 0, y: 0}
      data:
        first:
          name: _CustomAO
        second:
          m_Texture: {fileID: 2800000, guid: a30426fa79c4ab34db154e118891573c, type: 3}
          m_Scale: {x: 1, y: 1}
          m_Offset: {x: 0, y: 0}
      data:
        first:
          name: _GlossMap
        second:
          m_Texture: {fileID: 2800000, guid: 142ea41a438434140a11b7cf882e04e4, type: 3}
          m_Scale: {x: 5, y: 5}
          m_Offset: {x: 0, y: 0}
      data:
        first:
          name: _HeightMap
        second:
          m_Texture: {fileID: 2800000, guid: ed57d93ab4f8010409385d3c53dc9f49, type: 3}
          m_Scale: {x: 1, y: 1}
          m_Offset: {x: 0, y: 0}
      data:
        first:
          name: _OcclusionMap
        second:
          m_Texture: {fileID: 2800000, guid: a30426fa79c4ab34db154e118891573c, type: 3}
          m_Scale: {x: 1, y: 1}
          m_Offset: {x: 0, y: 0}
      data:
        first:
          name: _EmissionMap
        second:
          m_Texture: {fileID: 0}
          m_Scale: {x: 1, y: 1}
          m_Offset: {x: 0, y: 0}
      data:
        first:
          name: _DetailMask
        second:
          m_Texture: {fileID: 0}
          m_Scale: {x: 1, y: 1}
          m_Offset: {x: 0, y: 0}
      data:
        first:
          name: _DetailAlbedoMap
        second:
          m_Texture: {fileID: 2800000, guid: e337d1ec0cd49e9479b7148ed9d47083, type: 3}
          m_Scale: {x: 4, y: 1}
          m_Offset: {x: 0, y: 0}
      data:
        first:
          name: _MetallicGlossMap
        second:
          m_Texture: {fileID: 0}
          m_Scale: {x: 1, y: 1}
          m_Offset: {x: 0, y: 0}
    m_Floats:
      data:
        first:
          name: _SrcBlend
        second: 1
      data:
        first:
          name: _DstBlend
        second: 0
      data:
        first:
          name: _Cutoff
        second: 0.5
      data:
        first:
          name: _Gloss
        second: 0.27
      data:
        first:
          name: _SpecularIntensity
        second: 1.56
      data:
        first:
          name: _Parallax
        second: 0.0332
      data:
        first:
          name: _SpecularLevel
        second: 4.34
      data:
        first:
          name: _RimFresnel
        second: 2
      data:
        first:
          name: _RimLevel
        second: 3.392857
      data:
        first:
          name: _DiffusePower
        second: -0.48
      data:
        first:
          name: _Specularlevel
        second: 1
      data:
        first:
          name: _Fresnel
        second: 2
      data:
        first:
          name: _InvertFresnel
        second: 0
      data:
        first:
          name: _SSLevel
        second: 1
      data:
        first:
          name: _AOStrenght
        second: 0.44642857
      data:
        first:
          name: _NormalSmooth
        second: -1.03
      data:
        first:
          name: _GlossPower
        second: 0.3035714
      data:
        first:
          name: _useGlossMap
        second: 1
      data:
        first:
          name: _OclussionPower
        second: 3.94
      data:
        first:
          name: _OclussionExp
        second: 1
      data:
        first:
          name: _SceneAmbient
        second: 0
      data:
        first:
          name: _Transmisive
        second: 2.56
      data:
        first:
          name: _RimEnable
        second: 1
      data:
        first:
          name: _RimPower
        second: 0.69
      data:
        first:
          name: _Heightvalue
        second: 0.08
      data:
        first:
          name: _ParallaxDepth
        second: 0.44642857
      data:
        first:
          name: _AOAmmount
        second: 0.51785713
      data:
        first:
          name: _UVTiling
        second: 1
      data:
        first:
          name: _AffectAO
        second: 1
      data:
        first:
          name: _ZWrite
        second: 1
      data:
        first:
          name: _Glossiness
        second: 0.219
      data:
        first:
          name: _BumpScale
        second: 1
      data:
        first:
          name: _OcclusionStrength
        second: 1
      data:
        first:
          name: _DetailNormalMapScale
        second: 1
      data:
        first:
          name: _UVSec
        second: 0
      data:
        first:
          name: _EmissionScaleUI
        second: 0
      data:
        first:
          name: _Mode
        second: 0
      data:
        first:
          name: _Metallic
        second: 0.828
    m_Colors:
      data:
        first:
          name: _EmissionColor
        second: {r: 0, g: 0, b: 0, a: 0}
      data:
        first:
          name: _Color
        second: {r: 1, g: 1, b: 1, a: 1}
      data:
        first:
          name: _ColorTint
        second: {r: 1, g: 1, b: 1, a: 1}
      data:
        first:
          name: _SpecularTint
        second: {r: 1, g: 1, b: 1, a: 1}
      data:
        first:
          name: _RimColor
        second: {r: 0.3027853, g: 0.2557302, b: 0.42413792, a: 1}
      data:
        first:
          name: _SpecularColor
        second: {r: 0.5, g: 0.5, b: 0.5, a: 1}
      data:
        first:
          name: _SSColor
        second: {r: 0.5, g: 0.5, b: 0.5, a: 1}
      data:
        first:
          name: _TransColor
        second: {r: 0.2977941, g: 0.33942473, b: 0.5, a: 1}
      data:
        first:
          name: _AOColor
        second: {r: 0, g: 0, b: 0, a: 1}
      data:
        first:
          name: _EmissionColorUI
        second: {r: 1, g: 1, b: 1, a: 1}
