%YAML 1.1
%TAG !u! tag:unity3d.com,2011:
--- !u!21 &2100000
Material:
  serializedVersion: 6
  m_ObjectHideFlags: 0
  m_PrefabParentObject: {fileID: 0}
  m_PrefabInternal: {fileID: 0}
  m_Name: HangFlag01
  m_Shader: {fileID: 4800000, guid: 817cc3e7aa3ccd74eab06e0aea80dd7c, type: 3}
  m_ShaderKeywords: _INVERTICON_ON
  m_LightmapFlags: 5
  m_CustomRenderQueue: -1
  stringTagMap: {}
  m_SavedProperties:
    serializedVersion: 2
    m_TexEnvs:
      data:
        first:
          name: _MainTex
        second:
          m_Texture: {fileID: 0}
          m_Scale: {x: 1, y: 1}
          m_Offset: {x: 0, y: 0}
      data:
        first:
          name: _NormalMap
        second:
          m_Texture: {fileID: 2800000, guid: e1fef9d9b0909bf479120a6cfa444b8c, type: 3}
          m_Scale: {x: 2, y: 5}
          m_Offset: {x: 0, y: 0}
      data:
        first:
          name: _DetailTexture
        second:
          m_Texture: {fileID: 2800000, guid: 99603f82d529c4f448ab66d1ac76cb7c, type: 3}
          m_Scale: {x: 2, y: 5}
          m_Offset: {x: 0, y: 0}
      data:
        first:
          name: _ColorMask
        second:
          m_Texture: {fileID: 2800000, guid: 2f977e27e855d4e438ca11ec62a91c12, type: 3}
          m_Scale: {x: 1, y: 1}
          m_Offset: {x: 0, y: 0}
      data:
        first:
          name: _FlagIcon
        second:
          m_Texture: {fileID: 2800000, guid: eae569a1de1dfd148966e1dbf5f748f3, type: 3}
          m_Scale: {x: 1, y: 3}
          m_Offset: {x: 0, y: -1.7}
      data:
        first:
          name: _AlphaMask
        second:
          m_Texture: {fileID: 2800000, guid: 4d64478e128ab7149bf960e5ab21abb1, type: 3}
          m_Scale: {x: 1, y: 1}
          m_Offset: {x: 0, y: 0}
    m_Floats:
      data:
        first:
          name: _Cutoff
        second: 0.5
      data:
        first:
          name: _NormalSmooth
        second: 0.18
      data:
        first:
          name: _MainSpecPower
        second: 1.53
      data:
        first:
          name: _GlossMain
        second: 0.09
      data:
        first:
          name: _SpecColorA
        second: 0.17
      data:
        first:
          name: _SpecColorB
        second: 0.08
      data:
        first:
          name: _InvertIcon
        second: 1
      data:
        first:
          name: _SpecIcon
        second: 1.38
      data:
        first:
          name: _GlossIcon
        second: 0.38
      data:
        first:
          name: _BorderShadow
        second: 4.714286
      data:
        first:
          name: _AlphaClip
        second: 1.12
      data:
        first:
          name: _GlossBack
        second: 0
    m_Colors:
      data:
        first:
          name: _Color
        second: {r: 0.588, g: 0.588, b: 0.588, a: 1}
      data:
        first:
          name: _ColorA
        second: {r: 1, g: 1, b: 1, a: 1}
      data:
        first:
          name: _ColorB
        second: {r: 0.57586205, g: 0.57586205, b: 0.57586205, a: 1}
      data:
        first:
          name: _IconColor
        second: {r: 0.1, g: 0.066673875, b: 0.0014705897, a: 1}
      data:
        first:
          name: _ShadowColor
        second: {r: 0.9275862, g: 0.13640976, b: 0.20621951, a: 1}
