%YAML 1.1
%TAG !u! tag:unity3d.com,2011:
--- !u!21 &2100000
Material:
  serializedVersion: 6
  m_ObjectHideFlags: 0
  m_PrefabParentObject: {fileID: 0}
  m_PrefabInternal: {fileID: 0}
  m_Name: Floor Tiles 06
  m_Shader: {fileID: 46, guid: 0000000000000000f000000000000000, type: 0}
  m_ShaderKeywords: _AFFECTAO_ON _DETAIL_MULX2 _NORMALMAP _PARALLAXMAP
  m_LightmapFlags: 5
  m_CustomRenderQueue: -1
  stringTagMap: {}
  m_SavedProperties:
    serializedVersion: 2
    m_TexEnvs:
      data:
        first:
          name: _MainTex
        second:
          m_Texture: {fileID: 2800000, guid: 586f2fea796cbfd46b3f3f2808ad4193, type: 3}
          m_Scale: {x: 1, y: 1}
          m_Offset: {x: 0, y: 0}
      data:
        first:
          name: _BumpMap
        second:
          m_Texture: {fileID: 2800000, guid: 102bf079ddfd3b047ae4ca1f886b6a8e, type: 3}
          m_Scale: {x: 1, y: 1}
          m_Offset: {x: 0, y: 0}
      data:
        first:
          name: _DetailNormalMap
        second:
          m_Texture: {fileID: 0}
          m_Scale: {x: 1, y: 1}
          m_Offset: {x: 0, y: 0}
      data:
        first:
          name: _NormalMain
        second:
          m_Texture: {fileID: 2800000, guid: 102bf079ddfd3b047ae4ca1f886b6a8e, type: 3}
          m_Scale: {x: 1, y: 1}
          m_Offset: {x: 0, y: 0}
      data:
        first:
          name: _Specular
        second:
          m_Texture: {fileID: 2800000, guid: 586f2fea796cbfd46b3f3f2808ad4193, type: 3}
          m_Scale: {x: 1, y: 1}
          m_Offset: {x: 0, y: 0}
      data:
        first:
          name: _DiffuseDetail
        second:
          m_Texture: {fileID: 2800000, guid: c8a9cb8b683da0846921094a05fc07ff, type: 3}
          m_Scale: {x: 2, y: 2}
          m_Offset: {x: 0, y: 0}
      data:
        first:
          name: _NormalDetail
        second:
          m_Texture: {fileID: 2800000, guid: 4f5b0193ebcc75349b49cd444fb150c4, type: 3}
          m_Scale: {x: 2, y: 2}
          m_Offset: {x: 0, y: 0}
      data:
        first:
          name: _DiffuseMain
        second:
          m_Texture: {fileID: 2800000, guid: 586f2fea796cbfd46b3f3f2808ad4193, type: 3}
          m_Scale: {x: 1, y: 1}
          m_Offset: {x: 0, y: 0}
      data:
        first:
          name: _ParallaxMap
        second:
          m_Texture: {fileID: 2800000, guid: f77f0383862ec4243abf4928d5d65c2c, type: 3}
          m_Scale: {x: 1, y: 1}
          m_Offset: {x: 0, y: 0}
      data:
        first:
          name: _CustomAO
        second:
          m_Texture: {fileID: 2800000, guid: 78167d6c2500d8342b63fbbd653b1c82, type: 3}
          m_Scale: {x: 1, y: 1}
          m_Offset: {x: 0, y: 0}
      data:
        first:
          name: _HeightMap
        second:
          m_Texture: {fileID: 2800000, guid: f77f0383862ec4243abf4928d5d65c2c, type: 3}
          m_Scale: {x: 1, y: 1}
          m_Offset: {x: 0, y: 0}
      data:
        first:
          name: _OcclusionMap
        second:
          m_Texture: {fileID: 2800000, guid: 78167d6c2500d8342b63fbbd653b1c82, type: 3}
          m_Scale: {x: 1, y: 1}
          m_Offset: {x: 0, y: 0}
      data:
        first:
          name: _EmissionMap
        second:
          m_Texture: {fileID: 0}
          m_Scale: {x: 1, y: 1}
          m_Offset: {x: 0, y: 0}
      data:
        first:
          name: _DetailMask
        second:
          m_Texture: {fileID: 0}
          m_Scale: {x: 1, y: 1}
          m_Offset: {x: 0, y: 0}
      data:
        first:
          name: _DetailAlbedoMap
        second:
          m_Texture: {fileID: 2800000, guid: c8a9cb8b683da0846921094a05fc07ff, type: 3}
          m_Scale: {x: 3, y: 3}
          m_Offset: {x: 0, y: 0}
      data:
        first:
          name: _MetallicGlossMap
        second:
          m_Texture: {fileID: 0}
          m_Scale: {x: 1, y: 1}
          m_Offset: {x: 0, y: 0}
    m_Floats:
      data:
        first:
          name: _SrcBlend
        second: 1
      data:
        first:
          name: _DstBlend
        second: 0
      data:
        first:
          name: _Cutoff
        second: 0.5
      data:
        first:
          name: _Gloss
        second: 0.24
      data:
        first:
          name: _SpecularIntensity
        second: 1
      data:
        first:
          name: _Parallax
        second: 0.0321
      data:
        first:
          name: _RimLevel
        second: 4.859022
      data:
        first:
          name: _AOStrenght
        second: 0.08928572
      data:
        first:
          name: _Heightvalue
        second: 0.05
      data:
        first:
          name: _ParallaxDepth
        second: 1
      data:
        first:
          name: _AOAmmount
        second: 0.51785713
      data:
        first:
          name: _UVTiling
        second: 1
      data:
        first:
          name: _AffectAO
        second: 1
      data:
        first:
          name: _ZWrite
        second: 1
      data:
        first:
          name: _Glossiness
        second: 0.188
      data:
        first:
          name: _BumpScale
        second: 1.4
      data:
        first:
          name: _OcclusionStrength
        second: 1
      data:
        first:
          name: _DetailNormalMapScale
        second: 1
      data:
        first:
          name: _UVSec
        second: 0
      data:
        first:
          name: _EmissionScaleUI
        second: 0
      data:
        first:
          name: _Mode
        second: 0
      data:
        first:
          name: _Metallic
        second: 0
    m_Colors:
      data:
        first:
          name: _EmissionColor
        second: {r: 0, g: 0, b: 0, a: 0}
      data:
        first:
          name: _Color
        second: {r: 0.31617647, g: 0.31617647, b: 0.31617647, a: 1}
      data:
        first:
          name: _ColorTint
        second: {r: 1, g: 1, b: 1, a: 1}
      data:
        first:
          name: _SpecularTint
        second: {r: 0.5147059, g: 0.5147059, b: 0.5147059, a: 1}
      data:
        first:
          name: _RimColor
        second: {r: 0.13235295, g: 0.10072784, b: 0.072015576, a: 1}
      data:
        first:
          name: _AOColor
        second: {r: 0.37467563, g: 0.37611118, b: 0.4044118, a: 1}
      data:
        first:
          name: _EmissionColorUI
        second: {r: 1, g: 1, b: 1, a: 1}
