%YAML 1.1
%TAG !u! tag:unity3d.com,2011:
--- !u!21 &2100000
Material:
  serializedVersion: 6
  m_ObjectHideFlags: 0
  m_PrefabParentObject: {fileID: 0}
  m_PrefabInternal: {fileID: 0}
  m_Name: Large Blocks 01
  m_Shader: {fileID: 46, guid: 0000000000000000f000000000000000, type: 0}
  m_ShaderKeywords: _NORMALMAP _PARALLAXMAP
  m_LightmapFlags: 5
  m_CustomRenderQueue: -1
  stringTagMap: {}
  m_SavedProperties:
    serializedVersion: 2
    m_TexEnvs:
      data:
        first:
          name: _MainTex
        second:
          m_Texture: {fileID: 2800000, guid: 1a6b0b7dd5cf4e648a00b6343505ae3a, type: 3}
          m_Scale: {x: 1, y: 1}
          m_Offset: {x: 0, y: 0}
      data:
        first:
          name: _BumpMap
        second:
          m_Texture: {fileID: 2800000, guid: 96227a248b06ca7459807ac576204c1a, type: 3}
          m_Scale: {x: 1, y: 1}
          m_Offset: {x: 0, y: 0}
      data:
        first:
          name: _DetailNormalMap
        second:
          m_Texture: {fileID: 0}
          m_Scale: {x: 1, y: 1}
          m_Offset: {x: 0, y: 0}
      data:
        first:
          name: _NormalMain
        second:
          m_Texture: {fileID: 2800000, guid: 95501b1ee767a6046b9ebbb4dfda03fd, type: 3}
          m_Scale: {x: 1, y: 1}
          m_Offset: {x: 0, y: 0}
      data:
        first:
          name: _Specular
        second:
          m_Texture: {fileID: 2800000, guid: e5dc78516dcce93468d0c66de037cd7c, type: 3}
          m_Scale: {x: 1, y: 1}
          m_Offset: {x: 0, y: 0}
      data:
        first:
          name: _DiffuseDetail
        second:
          m_Texture: {fileID: 2800000, guid: 5059577942998b04ab08781c985974d8, type: 3}
          m_Scale: {x: 3, y: 3}
          m_Offset: {x: 0, y: 0}
      data:
        first:
          name: _NormalDetail
        second:
          m_Texture: {fileID: 2800000, guid: 774b0d86a69c0694ebcd354a907c8da7, type: 3}
          m_Scale: {x: 3, y: 3}
          m_Offset: {x: 0, y: 0}
      data:
        first:
          name: _DiffuseMain
        second:
          m_Texture: {fileID: 2800000, guid: 1a6b0b7dd5cf4e648a00b6343505ae3a, type: 3}
          m_Scale: {x: 1, y: 1}
          m_Offset: {x: 0, y: 0}
      data:
        first:
          name: _ParallaxMap
        second:
          m_Texture: {fileID: 2800000, guid: 2d395d9ce3a70a54eacdd2aa4833c95c, type: 3}
          m_Scale: {x: 1, y: 1}
          m_Offset: {x: 0, y: 0}
      data:
        first:
          name: _CustomAO
        second:
          m_Texture: {fileID: 2800000, guid: 1c0fd1d498dfefb489ae54c5cb9b8f3e, type: 3}
          m_Scale: {x: 1, y: 1}
          m_Offset: {x: 0, y: 0}
      data:
        first:
          name: _HeightMap
        second:
          m_Texture: {fileID: 2800000, guid: 2d395d9ce3a70a54eacdd2aa4833c95c, type: 3}
          m_Scale: {x: 1, y: 1}
          m_Offset: {x: 0, y: 0}
      data:
        first:
          name: _OcclusionMap
        second:
          m_Texture: {fileID: 2800000, guid: 1c0fd1d498dfefb489ae54c5cb9b8f3e, type: 3}
          m_Scale: {x: 1, y: 1}
          m_Offset: {x: 0, y: 0}
      data:
        first:
          name: _EmissionMap
        second:
          m_Texture: {fileID: 0}
          m_Scale: {x: 1, y: 1}
          m_Offset: {x: 0, y: 0}
      data:
        first:
          name: _DetailMask
        second:
          m_Texture: {fileID: 0}
          m_Scale: {x: 1, y: 1}
          m_Offset: {x: 0, y: 0}
      data:
        first:
          name: _DetailAlbedoMap
        second:
          m_Texture: {fileID: 0}
          m_Scale: {x: 1, y: 1}
          m_Offset: {x: 0, y: 0}
      data:
        first:
          name: _MetallicGlossMap
        second:
          m_Texture: {fileID: 0}
          m_Scale: {x: 1, y: 1}
          m_Offset: {x: 0, y: 0}
    m_Floats:
      data:
        first:
          name: _SrcBlend
        second: 1
      data:
        first:
          name: _DstBlend
        second: 0
      data:
        first:
          name: _Cutoff
        second: 0.5
      data:
        first:
          name: _Gloss
        second: 0.13
      data:
        first:
          name: _SpecularIntensity
        second: 1.98
      data:
        first:
          name: _Parallax
        second: 0.0551
      data:
        first:
          name: _RimLevel
        second: 7.001879
      data:
        first:
          name: _AOStrenght
        second: 0.8035715
      data:
        first:
          name: _Heightvalue
        second: 0.02
      data:
        first:
          name: _ParallaxDepth
        second: 0.66071427
      data:
        first:
          name: _AOAmmount
        second: 0.32142857
      data:
        first:
          name: _UVTiling
        second: 1
      data:
        first:
          name: _AffectAO
        second: 0
      data:
        first:
          name: _ZWrite
        second: 1
      data:
        first:
          name: _Glossiness
        second: 0.046
      data:
        first:
          name: _BumpScale
        second: 1
      data:
        first:
          name: _OcclusionStrength
        second: 1
      data:
        first:
          name: _DetailNormalMapScale
        second: 1
      data:
        first:
          name: _UVSec
        second: 0
      data:
        first:
          name: _EmissionScaleUI
        second: 0
      data:
        first:
          name: _Mode
        second: 0
      data:
        first:
          name: _Metallic
        second: 0.15
    m_Colors:
      data:
        first:
          name: _EmissionColor
        second: {r: 0, g: 0, b: 0, a: 0}
      data:
        first:
          name: _Color
        second: {r: 0.5294118, g: 0.5294118, b: 0.5294118, a: 1}
      data:
        first:
          name: _ColorTint
        second: {r: 1, g: 1, b: 1, a: 1}
      data:
        first:
          name: _SpecularTint
        second: {r: 0.5441177, g: 0.5441177, b: 0.5441177, a: 1}
      data:
        first:
          name: _RimColor
        second: {r: 0.14705884, g: 0.14705884, b: 0.14705884, a: 1}
      data:
        first:
          name: _AOColor
        second: {r: 0.43903777, g: 0.30709344, b: 0.52205884, a: 1}
      data:
        first:
          name: _EmissionColorUI
        second: {r: 1, g: 1, b: 1, a: 1}
